…
Evaluate alignment with vertex attributes

    ## # A tibble: 216 × 4
    ##    Community Attribute AttributeValue TotalCount
    ##    <fct>     <chr>     <fct>               <int>
    ##  1 1         Age       26                      0
    ##  2 1         Age       28                      0
    ##  3 1         Age       29                      0
    ##  4 1         Age       30                      0
    ##  5 1         Age       31                      3
    ##  6 1         Age       32                      1
    ##  7 1         Age       33                      0
    ##  8 1         Age       34                      1
    ##  9 1         Age       35                      1
    ## 10 1         Age       36                      1
    ## # ℹ 206 more rows

    ## # A tibble: 21 × 3
    ##    Community Attribute TotalCount
    ##    <fct>     <chr>          <int>
    ##  1 1         Age               30
    ##  2 1         Gender            30
    ##  3 1         LawSchool         30
    ##  4 1         Office            30
    ##  5 1         Practice          30
    ##  6 1         Seniority         30
    ##  7 1         Status            30
    ##  8 2         Age               18
    ##  9 2         Gender            18
    ## 10 2         LawSchool         18
    ## # ℹ 11 more rows
…
